…
## **Exercise 1 (37.5 points) - Jane Austen Word Count**

For this exercise I pick the novel “Sense and Sensibility” from the
`janeaustenr` library.

I will first make `janeaustenr::sensesensibility` into a tibble to see
what the data looks like.

``` r
sensesensibility_tibble <- tibble(txt = sensesensibility)
sensesensibility_tibble
```

    ## # A tibble: 12,624 × 1
    ##    txt                    
    ##    <chr>                  
    ##  1 "SENSE AND SENSIBILITY"
    ##  2 ""                     
    ##  3 "by Jane Austen"       
    ##  4 ""                     
    ##  5 "(1811)"               
    ##  6 ""                     
    ##  7 ""                     
    ##  8 ""                     
    ##  9 ""                     
    ## 10 "CHAPTER 1"            
    ## # ℹ 12,614 more rows
…
